<?xml version="1.0" encoding="UTF-8" standalone="no"?>
<!DOCTYPE svg PUBLIC "-//W3C//DTD SVG 1.1//EN"
 "http://www.w3.org/Graphics/SVG/1.1/DTD/svg11.dtd">
<!-- Generated by graphviz version 2.38.0 (20140413.2041)
 -->
<!-- Title: %3 Pages: 1 -->
<svg width="230pt" height="335pt"
 viewBox="0.00 0.00 229.97 335.31" xmlns="http://www.w3.org/2000/svg" xmlns:xlink="http://www.w3.org/1999/xlink">
<g id="graph0" class="graph" transform="scale(1 1) rotate(0) translate(4 331.311)">
<title>%3</title>
<polygon fill="white" stroke="none" points="-4,4 -4,-331.311 225.967,-331.311 225.967,4 -4,4"/>
<!-- A -->
<g id="node1" class="node"><title>A</title>
<ellipse fill="none" stroke="black" cx="43" cy="-309.311" rx="37.2516" ry="18"/>
<text text-anchor="middle" x="43" y="-305.111" font-family="Times,serif" font-size="14.00">Node A</text>
</g>
<!-- B -->
<g id="node2" class="node"><title>B</title>
<ellipse fill="none" stroke="black" cx="106" cy="-211.343" rx="37.243" ry="18"/>
<text text-anchor="middle" x="106" y="-207.143" font-family="Times,serif" font-size="14.00">Node B</text>
</g>
<!-- A&#45;&gt;B -->
<g id="edge1" class="edge"><title>A&#45;&gt;B</title>
<path fill="none" stroke="black" d="M53.6871,-292.031C63.5524,-277.003 78.3474,-254.466 89.6888,-237.19"/>
<polygon fill="black" stroke="black" points="92.6984,-238.983 95.2605,-228.703 86.8467,-235.142 92.6984,-238.983"/>
<text text-anchor="middle" x="94.6328" y="-262.111" font-family="Times,serif" font-size="14.00">Edge 1</text>
</g>
<!-- C -->
<g id="node3" class="node"><title>C</title>
<ellipse fill="none" stroke="black" cx="27" cy="-102.188" rx="27" ry="18"/>
<text text-anchor="middle" x="27" y="-97.988" font-family="Times,serif" font-size="14.00">C</text>
</g>
<!-- A&#45;&gt;C -->
<g id="edge2" class="edge"><title>A&#45;&gt;C</title>
<path fill="none" stroke="black" d="M35.7834,-291.616C30.433,-278.285 23.5929,-258.977 20.7344,-241.311 14.5738,-203.238 18.6144,-158.548 22.4779,-130.544"/>
<polygon fill="black" stroke="black" points="25.9879,-130.732 23.9828,-120.328 19.0626,-129.712 25.9879,-130.732"/>
<text text-anchor="middle" x="40.6328" y="-207.143" font-family="Times,serif" font-size="14.00">Edge 2</text>
</g>
<!-- B&#45;&gt;C -->
<g id="edge3" class="edge"><title>B&#45;&gt;C</title>
<path fill="none" stroke="black" d="M94.0016,-194.069C80.7826,-176.138 59.4057,-147.143 44.3596,-126.734"/>
<polygon fill="black" stroke="black" points="47.0924,-124.543 38.3411,-118.571 41.4581,-128.697 47.0924,-124.543"/>
</g>
<!-- E -->
<g id="node5" class="node"><title>E</title>
<polygon fill="#cccccc" stroke="black" points="146.377,-131.565 87.6228,-131.565 87.6228,-72.8108 146.377,-72.8108 146.377,-131.565"/>
<text text-anchor="middle" x="117" y="-97.988" font-family="Times,serif" font-size="14.00">Node E</text>
</g>
<!-- B&#45;&gt;E -->
<g id="edge7" class="edge"><title>B&#45;&gt;E</title>
<path fill="none" stroke="red" d="M107.767,-193.127C109.189,-179.28 111.24,-159.297 113.048,-141.682"/>
<polygon fill="red" stroke="red" points="116.539,-141.954 114.078,-131.649 109.575,-141.239 116.539,-141.954"/>
</g>
<!-- D -->
<g id="node4" class="node"><title>D</title>
<polygon fill="#cccccc" stroke="black" points="221.935,-241.278 162.065,-241.278 162.065,-181.409 221.935,-181.409 221.935,-241.278"/>
<text text-anchor="middle" x="192" y="-207.143" font-family="Times,serif" font-size="14.00">Node D</text>
</g>
<!-- D&#45;&gt;E -->
<g id="edge4" class="edge"><title>D&#45;&gt;E</title>
<path fill="none" stroke="black" d="M161.847,-187.658C153.866,-180.555 145.796,-172.237 139.734,-163.376 135.123,-156.634 131.291,-148.833 128.169,-141.128"/>
<polygon fill="black" stroke="black" points="131.357,-139.659 124.59,-131.506 124.796,-142.099 131.357,-139.659"/>
<text text-anchor="middle" x="159.633" y="-152.176" font-family="Times,serif" font-size="14.00">Edge 3</text>
</g>
<!-- F -->
<g id="node6" class="node"><title>F</title>
<polygon fill="#cccccc" stroke="black" points="186,-36 150,-36 150,-0 186,-0 186,-36"/>
<text text-anchor="middle" x="168" y="-13.8" font-family="Times,serif" font-size="14.00">F</text>
</g>
<!-- D&#45;&gt;F -->
<g id="edge5" class="edge"><title>D&#45;&gt;F</title>
<path fill="none" stroke="black" d="M188.355,-181.282C183.756,-144.616 175.907,-82.036 171.418,-46.2485"/>
<polygon fill="black" stroke="black" points="174.857,-45.5472 170.14,-36.0606 167.912,-46.4185 174.857,-45.5472"/>
<text text-anchor="middle" x="201.633" y="-97.988" font-family="Times,serif" font-size="14.00">Edge 4</text>
</g>
<!-- E&#45;&gt;F -->
<g id="edge6" class="edge"><title>E&#45;&gt;F</title>
<path fill="none" stroke="black" d="M134.551,-72.9035C140.256,-63.7097 146.551,-53.5653 152.126,-44.5806"/>
<polygon fill="black" stroke="black" points="155.115,-46.4031 157.413,-36.0606 149.167,-42.7122 155.115,-46.4031"/>
</g>
</g>
</svg>
