<?xml version="1.0" encoding="UTF-8" standalone="no"?>
<!DOCTYPE svg PUBLIC "-//W3C//DTD SVG 1.1//EN"
 "http://www.w3.org/Graphics/SVG/1.1/DTD/svg11.dtd">
<!-- Generated by graphviz version 2.38.0 (20140413.2041)
 -->
<!-- Title: %3 Pages: 1 -->
<svg width="168pt" height="225pt"
 viewBox="0.00 0.00 167.94 225.00" xmlns="http://www.w3.org/2000/svg" xmlns:xlink="http://www.w3.org/1999/xlink">
<g id="graph0" class="graph" transform="scale(1 1) rotate(0) translate(4 221)">
<title>%3</title>
<polygon fill="#333333" stroke="none" points="-4,4 -4,-221 163.938,-221 163.938,4 -4,4"/>
<text text-anchor="middle" x="79.9688" y="-7.2" font-family="Times,serif" font-size="16.00" fill="white">A Fancy Graph</text>
<!-- A -->
<g id="node1" class="node"><title>A</title>
<polygon fill="#006699" stroke="white" points="144.075,-42 121.403,-60 76.0581,-60 53.3858,-42 76.0581,-24 121.403,-24 144.075,-42"/>
<text text-anchor="middle" x="98.7305" y="-37.8" font-family="Helvetica,sans-Serif" font-size="14.00" fill="white">Node A</text>
</g>
<!-- B -->
<g id="node2" class="node"><title>B</title>
<polygon fill="#006699" stroke="white" points="91.6926,-126 68.7115,-144 22.7494,-144 -0.231641,-126 22.7494,-108 68.7115,-108 91.6926,-126"/>
<text text-anchor="middle" x="45.7305" y="-121.8" font-family="Helvetica,sans-Serif" font-size="14.00" fill="white">Node B</text>
</g>
<!-- A&#45;&gt;B -->
<g id="edge1" class="edge"><title>A&#45;&gt;B</title>
<path fill="none" stroke="white" stroke-dasharray="5,2" d="M83.6922,-60.3031C79.2221,-65.7945 74.4694,-72.0018 70.5234,-78 66.2708,-84.4644 62.1434,-91.7382 58.5156,-98.5969"/>
<polygon fill="white" stroke="white" points="53.9136,-107.578 54.4693,-96.6258 56.1938,-103.128 58.4741,-98.678 58.4741,-98.678 58.4741,-98.678 56.1938,-103.128 62.4789,-100.73 53.9136,-107.578 53.9136,-107.578"/>
<text text-anchor="middle" x="92.334" y="-80.4" font-family="Courier,monospace" font-size="12.00" fill="white">Edge 1</text>
</g>
<!-- C -->
<g id="node3" class="node"><title>C</title>
<polygon fill="#006699" stroke="white" points="127.73,-199 114.23,-217 87.2305,-217 73.7305,-199 87.2305,-181 114.23,-181 127.73,-199"/>
<text text-anchor="middle" x="100.73" y="-194.8" font-family="Helvetica,sans-Serif" font-size="14.00" fill="white">C</text>
</g>
<!-- A&#45;&gt;C -->
<g id="edge2" class="edge"><title>A&#45;&gt;C</title>
<path fill="none" stroke="white" stroke-dasharray="5,2" d="M107.805,-60.3529C110.226,-65.8463 112.508,-72.0422 113.73,-78 120.19,-109.471 114.25,-146.286 108.446,-170.757"/>
<polygon fill="white" stroke="white" points="105.918,-180.752 104.007,-169.954 107.144,-175.905 108.37,-171.057 108.37,-171.057 108.37,-171.057 107.144,-175.905 112.732,-172.161 105.918,-180.752 105.918,-180.752"/>
<text text-anchor="middle" x="138.334" y="-122.4" font-family="Courier,monospace" font-size="12.00" fill="white">Edge 2</text>
</g>
<!-- B&#45;&gt;C -->
<g id="edge3" class="edge"><title>B&#45;&gt;C</title>
<path fill="none" stroke="white" stroke-dasharray="5,2" d="M59.0444,-144.187C65.7326,-152.821 73.9625,-163.445 81.3379,-172.966"/>
<polygon fill="white" stroke="white" points="87.5391,-180.971 77.8576,-175.821 84.4771,-177.018 81.4151,-173.066 81.4151,-173.066 81.4151,-173.066 84.4771,-177.018 84.9726,-170.31 87.5391,-180.971 87.5391,-180.971"/>
</g>
</g>
</svg>
